<svg id="Group_370" data-name="Group 370" xmlns="http://www.w3.org/2000/svg" width="118" height="118" viewBox="0 0 118 118">
  <g id="Ellipse_967" data-name="Ellipse 967" transform="translate(0 0)" fill="#3a8eec" stroke="#3a8eec" stroke-width="2">
    <circle cx="59" cy="59" r="59" stroke="none"/>
    <circle cx="59" cy="59" r="58" fill="none"/>
  </g>
  <g id="Group_361" data-name="Group 361" transform="translate(28.807 8.114)">
    <text id="_Rửa_khô_rửa_ướt_" data-name="(Rửa khô/ rửa ướt)" transform="translate(31.193 95.886)" fill="#fff" font-size="8" font-family="Montserrat-Light, Montserrat" font-weight="300" opacity="0.8"><tspan x="-35.5" y="0">(Rửa khô/ rửa ướt)</tspan></text>
    <text id="Rửa_mặt" data-name="Rửa mặt" transform="translate(30.193 84.886)" fill="#fff" font-size="12" font-family="Montserrat-SemiBold, Montserrat" font-weight="600"><tspan x="-26.268" y="0">Rửa mặt</tspan></text>
    <g id="Group_163" data-name="Group 163" transform="translate(0 0)">
      <path id="Path_1767" data-name="Path 1767" d="M76.858,378.73a1.1,1.1,0,0,1,1.516-.02,6.607,6.607,0,0,1-.708,3.91,15.428,15.428,0,0,0-1.144,3.018c-.1.507-.876.558-.876,0A55.281,55.281,0,0,1,76.858,378.73Z" transform="translate(-32.628 -343.481)" fill="#fdac78"/>
      <path id="Path_1768" data-name="Path 1768" d="M45.525,378.73a1.1,1.1,0,0,0-1.517-.02,6.619,6.619,0,0,0,.709,3.91,15.429,15.429,0,0,1,1.144,3.018c.1.507.876.558.876,0A55.281,55.281,0,0,0,45.525,378.73Z" transform="translate(-29.849 -343.481)" fill="#fdac78"/>
      <g id="Group_133" data-name="Group 133" transform="translate(0 46.968)">
        <path id="Path_1769" data-name="Path 1769" d="M82.149,409.418c-5.315-2.264-14.551-.814-15.546-7.859-.194-1.38.381-9.354.981-9.954L58.45,394.9l-9.135-3.294c.6.6,1.176,8.574.981,9.954-.994,7.045-10.231,5.6-15.546,7.859-6.253,2.663-6.253,5.388-6.253,5.388l29.953-.015,29.953.015S88.4,412.081,82.149,409.418Z" transform="translate(-28.497 -391.605)" fill="#fdac78"/>
        <path id="Path_1770" data-name="Path 1770" d="M60.5,399.676a77.04,77.04,0,0,0-8.7-6.389,24.82,24.82,0,0,1,.361,2.9c2.34,3.488,5.163,6.479,8.335,6.479,3.227.005,6-2.991,8.335-6.479a25.073,25.073,0,0,1,.361-2.9A77.131,77.131,0,0,0,60.5,399.676Z" transform="translate(-30.539 -391.752)" fill="#fd8767"/>
      </g>
      <path id="Path_1771" data-name="Path 1771" d="M71.689,351.232c-3.661-3.661-11.446-4.2-11.973-4.2s-8.314.537-11.975,4.2-6.264,10.024-4,18.863c2.288,8.931,1.285,7.456,2.6,11.931,1.287,4.383,6.032,8.964,7.2,10.131s3.286,3.464,6.174,3.466,5.01-2.3,6.176-3.466,5.911-5.748,7.2-10.131c1.315-4.475.311-3,2.6-11.931C77.953,361.256,75.354,354.9,71.689,351.232Z" transform="translate(-29.759 -340.731)" fill="#fdac78"/>
      <g id="Group_140" data-name="Group 140" transform="translate(17.366 28.957)">
        <g id="Group_136" data-name="Group 136" transform="translate(15.552 0.071)">
          <path id="Path_1772" data-name="Path 1772" d="M69.231,375.591A7.87,7.87,0,0,1,73.064,377c.391.392-3.111,2.08-4.219,2.08a30.039,30.039,0,0,1-3.448-.533c-.252,0-.4-.755-.4-.935S66.136,375.591,69.231,375.591Z" transform="translate(-64.614 -372.262)" fill="#fdac78"/>
          <path id="Path_1773" data-name="Path 1773" d="M65.068,372.934c-.686.449-1,1.912,1.451,1.135s2.33-1,4.273-1a6.753,6.753,0,0,1,3.364.8,8.776,8.776,0,0,0-3.461-1.769A8.468,8.468,0,0,0,65.068,372.934Z" transform="translate(-64.576 -371.942)" fill="#340602"/>
          <path id="Path_1774" data-name="Path 1774" d="M65.112,376.619a5.453,5.453,0,0,1,3.67-2.329,6.967,6.967,0,0,1,4.607,1.445.785.785,0,0,1-.868.2,21.542,21.542,0,0,0-3.672-.432A6.178,6.178,0,0,0,65.112,376.619Z" transform="translate(-64.623 -372.147)" fill="#fd8767"/>
          <path id="Path_1775" data-name="Path 1775" d="M65.731,378.737a11.555,11.555,0,0,0,3.761.2c1.644-.152,3.595-2.282,3.595-2.282a10.1,10.1,0,0,1-3.6,1.808A26.179,26.179,0,0,1,65.731,378.737Z" transform="translate(-64.677 -372.355)" fill="#fd8767"/>
          <path id="Path_1776" data-name="Path 1776" d="M64.646,377.007c.158-.157,2.357-1.942,3.91-1.942a7.948,7.948,0,0,1,4.306,1.056c1.191.777.045-.276-.409-.513a8.008,8.008,0,0,0-3.778-.821C66.912,374.876,64.646,377.007,64.646,377.007Z" transform="translate(-64.582 -372.191)"/>
          <g id="Group_135" data-name="Group 135" transform="translate(0.969 4.705)">
            <path id="Path_1777" data-name="Path 1777" d="M68.89,378.946c1.818,0,4.091-1.773,4.159-1.839s-.183.369.016.567c.228.229-2.419,1.588-4.164,1.542a7.451,7.451,0,0,1-3.263-.456A13.775,13.775,0,0,0,68.89,378.946Z" transform="translate(-65.638 -377.099)"/>
            <g id="Group_134" data-name="Group 134" transform="translate(3.788 0.508)">
              <path id="Path_1778" data-name="Path 1778" d="M69.79,379.329s.888.367.644.193c-.154-.11-.082-.161-.172-.252S69.79,379.329,69.79,379.329Z" transform="translate(-69.79 -377.795)"/>
              <path id="Path_1779" data-name="Path 1779" d="M70.3,379.224c.117,0,1.092.374.88.214-.244-.185-.156-.245-.267-.357C70.772,378.945,70.3,379.224,70.3,379.224Z" transform="translate(-69.834 -377.778)"/>
              <path id="Path_1780" data-name="Path 1780" d="M73.473,377.927c.118,0,1.036.047.776,0a.869.869,0,0,1-.527-.236C73.584,377.549,73.473,377.927,73.473,377.927Z" transform="translate(-70.113 -377.656)"/>
              <path id="Path_1781" data-name="Path 1781" d="M71.146,379.043c-.125.046.915.245.721.152a.586.586,0,0,1-.279-.281C71.486,378.748,71.219,379.017,71.146,379.043Z" transform="translate(-69.908 -377.762)"/>
              <path id="Path_1782" data-name="Path 1782" d="M71.836,378.824c.146,0,.782.122.663.063-.192-.1-.176-.143-.213-.245C72.229,378.483,71.836,378.824,71.836,378.824Z" transform="translate(-69.969 -377.739)"/>
              <path id="Path_1783" data-name="Path 1783" d="M72.444,378.527c0,.177.925.163.733.128a.329.329,0,0,1-.3-.316C72.872,378.123,72.444,378.383,72.444,378.527Z" transform="translate(-70.023 -377.709)"/>
              <path id="Path_1784" data-name="Path 1784" d="M73.117,378.24c.165,0,.942.052.688-.008-.382-.089-.191-.284-.313-.284C73.256,377.948,73.117,378.24,73.117,378.24Z" transform="translate(-70.082 -377.682)"/>
            </g>
          </g>
        </g>
        <g id="Group_139" data-name="Group 139">
          <path id="Path_1785" data-name="Path 1785" d="M52.6,375.513a7.863,7.863,0,0,0-3.832,1.412c-.392.392,3.11,2.08,4.218,2.08a30.057,30.057,0,0,0,3.448-.532c.252,0,.4-.756.4-.936S55.693,375.513,52.6,375.513Z" transform="translate(-47.637 -372.184)" fill="#fdac78"/>
          <path id="Path_1786" data-name="Path 1786" d="M56.618,372.856c.686.449,1,1.912-1.45,1.136s-2.331-1-4.274-1a6.749,6.749,0,0,0-3.364.8,8.765,8.765,0,0,1,3.461-1.77A8.468,8.468,0,0,1,56.618,372.856Z" transform="translate(-47.531 -371.864)" fill="#340602"/>
          <path id="Path_1787" data-name="Path 1787" d="M56.7,376.541a5.458,5.458,0,0,0-3.671-2.329,6.969,6.969,0,0,0-4.606,1.445.783.783,0,0,0,.867.2,21.543,21.543,0,0,1,3.672-.432A6.182,6.182,0,0,1,56.7,376.541Z" transform="translate(-47.609 -372.069)" fill="#fd8767"/>
          <path id="Path_1788" data-name="Path 1788" d="M56.169,378.659a11.55,11.55,0,0,1-3.76.2c-1.645-.152-3.6-2.282-3.6-2.282a10.113,10.113,0,0,0,3.6,1.809A26.218,26.218,0,0,0,56.169,378.659Z" transform="translate(-47.643 -372.277)" fill="#fd8767"/>
          <path id="Path_1789" data-name="Path 1789" d="M57.12,376.929c-.157-.157-2.356-1.942-3.91-1.942a7.943,7.943,0,0,0-4.307,1.057c-1.191.776-.045-.277.41-.514a8.019,8.019,0,0,1,3.778-.821C54.854,374.8,57.12,376.929,57.12,376.929Z" transform="translate(-47.605 -372.112)"/>
          <g id="Group_138" data-name="Group 138" transform="translate(0.641 4.705)">
            <path id="Path_1790" data-name="Path 1790" d="M53,378.868c-1.818,0-4.091-1.772-4.159-1.839s.183.369-.016.568c-.228.228,2.42,1.588,4.164,1.541a7.449,7.449,0,0,0,3.263-.456A13.78,13.78,0,0,1,53,378.868Z" transform="translate(-48.284 -377.021)"/>
            <g id="Group_137" data-name="Group 137" transform="translate(0 0.508)">
              <path id="Path_1791" data-name="Path 1791" d="M52.75,379.251s-.888.367-.644.193c.155-.11.083-.161.172-.252S52.75,379.251,52.75,379.251Z" transform="translate(-48.569 -377.717)"/>
              <path id="Path_1792" data-name="Path 1792" d="M52.223,379.147c-.118,0-1.093.374-.881.213.245-.184.156-.245.268-.357C51.747,378.866,52.223,379.147,52.223,379.147Z" transform="translate(-48.503 -377.7)"/>
              <path id="Path_1793" data-name="Path 1793" d="M49.054,377.849c-.117,0-1.036.047-.775,0a.871.871,0,0,0,.527-.236C48.944,377.471,49.054,377.849,49.054,377.849Z" transform="translate(-48.233 -377.578)"/>
              <path id="Path_1794" data-name="Path 1794" d="M51.387,378.965c.125.046-.914.245-.721.153a.6.6,0,0,0,.28-.282C51.047,378.67,51.314,378.939,51.387,378.965Z" transform="translate(-48.444 -377.684)"/>
              <path id="Path_1795" data-name="Path 1795" d="M50.7,378.746c-.145,0-.782.123-.663.063.192-.1.176-.143.213-.244C50.313,378.406,50.7,378.746,50.7,378.746Z" transform="translate(-48.39 -377.661)"/>
              <path id="Path_1796" data-name="Path 1796" d="M50.09,378.449c0,.177-.926.163-.734.128a.329.329,0,0,0,.3-.315C49.661,378.045,50.09,378.3,50.09,378.449Z" transform="translate(-48.329 -377.631)"/>
              <path id="Path_1797" data-name="Path 1797" d="M49.419,378.163c-.166,0-.942.051-.689-.008.382-.089.191-.285.314-.285C49.279,377.87,49.419,378.163,49.419,378.163Z" transform="translate(-48.272 -377.604)"/>
            </g>
          </g>
        </g>
      </g>
      <g id="Group_141" data-name="Group 141" transform="translate(25.555 45.739)">
        <path id="Path_1798" data-name="Path 1798" d="M60.883,391.578c-1.075,0-3.49-.385-4.377-1.15,1.2,1.277,1.666,3.489,4.377,3.489s3.177-2.212,4.377-3.489C64.372,391.192,61.957,391.578,60.883,391.578Z" transform="translate(-56.506 -390.273)" fill="#ea0030"/>
        <path id="Path_1799" data-name="Path 1799" d="M61.9,390.258c-.209,0-.852.308-1.022.308s-.813-.308-1.022-.308c-1.433,0-2.37.631-3.355.154,1.312,1.133,3.946,1.151,4.377,1.151s3.065-.017,4.377-1.151C64.275,390.889,63.338,390.258,61.9,390.258Z" transform="translate(-56.506 -390.258)" fill="#ea3359"/>
      </g>
      <g id="Group_142" data-name="Group 142" transform="translate(27.313 41.873)">
        <path id="Path_1800" data-name="Path 1800" d="M61.3,386.692a2.007,2.007,0,0,0,1.309-.56c.328-.328,1.31.177,1.31.177s-.965-.188-1.143-.01S62.415,386.771,61.3,386.692Z" transform="translate(-58.684 -386.021)" fill="#fd8767"/>
        <path id="Path_1801" data-name="Path 1801" d="M61.052,386.692a2.008,2.008,0,0,1-1.309-.56c-.328-.328-1.309.177-1.309.177s.964-.188,1.142-.01S59.939,386.771,61.052,386.692Z" transform="translate(-58.433 -386.021)" fill="#fd8767"/>
      </g>
      <g id="Group_144" data-name="Group 144" transform="translate(11.705)">
        <g id="Group_143" data-name="Group 143">
          <path id="Path_1802" data-name="Path 1802" d="M52.3,348.427c-.417-.416-.733-2.4-.733-3.732a5.112,5.112,0,0,1,3.866-4.466c2.466-.4,3.739.5,4.652.5s2.513-.533,3.979-.133,4.266,2.433,4.566,4.1.027,3.23-.647,3.9S52.3,348.427,52.3,348.427Z" transform="translate(-42.223 -340.126)" fill="#f60"/>
          <path id="Path_1803" data-name="Path 1803" d="M55.276,344.538c-.073-.846-.285,3.1.742,3.829s1.1-.506,1.1-.506A4.847,4.847,0,0,1,55.276,344.538Z" transform="translate(-42.542 -340.502)" fill="#a81306"/>
          <path id="Path_1804" data-name="Path 1804" d="M58.454,345.031c-.074-.847-.285,3.1.742,3.829s1.1-.507,1.1-.507A4.847,4.847,0,0,1,58.454,345.031Z" transform="translate(-42.821 -340.545)" fill="#a81306"/>
          <path id="Path_1805" data-name="Path 1805" d="M52.869,344.464c0-.849-.4,3.065.3,3.879s.83-.411.83-.411A5.611,5.611,0,0,1,52.869,344.464Z" transform="translate(-42.327 -340.495)" fill="#a81306"/>
          <path id="Path_1806" data-name="Path 1806" d="M76.422,365.062c.311.87.86-6.09-.517-9.2s-6.279-6.754-7.576-7.243a36.7,36.7,0,0,0-8.607-1.743A35.011,35.011,0,0,0,49.2,349.463c-2.279.97-5.953,3.866-6.709,5.866s-1.933,5.534-.456,7.834c.724-3.368,12.276-8.562,17.519-8.562S74.229,358.933,76.422,365.062Z" transform="translate(-41.326 -340.717)" fill="#b5d968"/>
        </g>
        <path id="Path_1807" data-name="Path 1807" d="M55.583,360.885a13.286,13.286,0,0,0,6.636,5.4c1.824.466,11.135,1.18,12.745,6.989,2.61-4.656,1.432-8.331.943-9.455-.633-1.456-5.565-7.5-12.564-8.428-5.351-.71-17.3,1.7-21.1,8.161-1.533,2.466,2,9.663,2,9.663s-.4-4.331,2.332-5.731S54.722,364.617,55.583,360.885Z" transform="translate(-41.373 -341.453)" fill="#f60"/>
        <path id="Path_1808" data-name="Path 1808" d="M68.95,358.922c3.838,1.733,6.176,4.261,6.843,6.216C74.472,362.915,70.226,359.627,68.95,358.922Z" transform="translate(-43.746 -341.773)" fill="#340602"/>
        <path id="Path_1809" data-name="Path 1809" d="M76.45,363.957c1.61.789,2.444,3.533,2.444,4.621A12.619,12.619,0,0,0,76.45,363.957Z" transform="translate(-44.404 -342.214)" fill="#340602"/>
      </g>
      <path id="Path_1810" data-name="Path 1810" d="M72.815,380.486c-.994,0-3.549-.152-3.525,1.415.011.66-1.827.137-1.827,2.19a8.485,8.485,0,0,0,.44,3.308c.8,1.236-.714,2.257-.714,3.378s1.452,2.267,2.788,2.267,4.414-5.884,4.414-7.167S72.815,380.486,72.815,380.486Z" transform="translate(-31.887 -343.662)" fill="#d9d9d9"/>
      <path id="Path_1811" data-name="Path 1811" d="M69.221,389.479a8.485,8.485,0,0,1-.44-3.308c0-2.053,1.838-1.53,1.827-2.19-.021-1.319,1.784-1.42,2.949-1.419-.379-1.127-.742-2.077-.742-2.077-.994,0-3.549-.152-3.525,1.415.011.66-1.827.137-1.827,2.19a8.485,8.485,0,0,0,.44,3.308c.8,1.236-.714,2.257-.714,3.378a2.378,2.378,0,0,0,1.338,1.854C68.7,391.6,69.964,390.632,69.221,389.479Z" transform="translate(-31.887 -343.662)" fill="#d9d9d9" style="mix-blend-mode: screen;isolation: isolate"/>
      <path id="Path_1812" data-name="Path 1812" d="M50.7,393.209c.934-.339,3.388-1.07,2.828-2.534-.235-.617,1.67-.754.968-2.682a8.5,8.5,0,0,0-1.545-2.959c-1.171-.89-.1-2.366-.483-3.42s-2.141-1.633-3.4-1.177-2.137,7.038-1.7,8.244S50.7,393.209,50.7,393.209Z" transform="translate(-30.141 -343.644)" fill="#d9d9d9"/>
      <path id="Path_1813" data-name="Path 1813" d="M54.643,387.993a8.492,8.492,0,0,0-1.545-2.959c-1.171-.89-.1-2.366-.483-3.42s-2.141-1.633-3.4-1.177a.781.781,0,0,0-.289.229c1.234-.331,2.827.231,3.19,1.229.383,1.054-.689,2.53.484,3.42a8.479,8.479,0,0,1,1.544,2.958c.7,1.93-1.2,2.067-.968,2.683.268.7-.157,1.232-.772,1.633.854-.423,1.6-1.036,1.267-1.914C53.44,390.059,55.345,389.922,54.643,387.993Z" transform="translate(-30.288 -343.644)" fill="#d9d9d9" style="mix-blend-mode: screen;isolation: isolate"/>
      <g id="Group_145" data-name="Group 145" transform="translate(14.213 33.774)">
        <path id="Path_1814" data-name="Path 1814" d="M55.1,401.889c.13-1.48-1.554-7.046-2.141-8.44-.861-2.046-1.107-7.693-1.17-8.206s-.757-2.479-1.65-2.479c-.484,0-.581.323-.581.323s-.113-4.538-1.529-4.523a1.718,1.718,0,0,0-1.282-1.421c-.671,0-.743,1.454-.743,2.046a.618.618,0,0,0-.534-.193c-.315,0-.285.57-.285,1.765s.01,1.55.01,2.229a45.186,45.186,0,0,0,.323,4.782,20.078,20.078,0,0,1-.1,3.424,9.237,9.237,0,0,0,.323,1.862c0,.3,2.529,11.006,2.237,12.091-.749.124-1.817,0-1.985.731-.653,2.833-1.716,7.255-1.921,7.69,1.392,0,9.8-.043,11.573-.043C56.133,412.235,54.873,404.442,55.1,401.889Z" transform="translate(-44.075 -377.143)" fill="#fd8767"/>
        <path id="Path_1815" data-name="Path 1815" d="M54.508,401.8c.128-1.452-1.255-6.806-1.83-8.173-.845-2.006-1.086-7.544-1.148-8.047s-.517-2.534-1.394-2.534c-.475,0-.57.317-.57.317s-.111-4.451-1.5-4.435a1.683,1.683,0,0,0-1.256-1.394c-.658,0-.729,1.426-.729,2.006a.6.6,0,0,0-.522-.189c-.309,0-.28.558-.28,1.731s.01,1.521.01,2.186a44.044,44.044,0,0,0,.318,4.689,19.765,19.765,0,0,1-.1,3.358,9.034,9.034,0,0,0,.318,1.827c0,.3,1.4,7.021,1.33,8.121A63.235,63.235,0,0,1,45.044,413.6c1.888,0,7.589,0,9.624-.061C55.143,412.275,54.285,404.306,54.508,401.8Z" transform="translate(-44.16 -377.178)" fill="#fdac78"/>
        <path id="Path_1816" data-name="Path 1816" d="M50.023,392.512v-3.2c0-.665.085-1.632.085-2.5a25.833,25.833,0,0,1-.127-2.883,1.458,1.458,0,0,0-.19.972,14.182,14.182,0,0,1,.095,1.942c-.079.618-.095,2.171-.095,2.392S50.023,392.512,50.023,392.512Z" transform="translate(-44.575 -377.737)" fill="#fd8767"/>
        <path id="Path_1817" data-name="Path 1817" d="M47.892,390.383A29.9,29.9,0,0,0,47.618,387c0-.549.15-2.851.15-3.3s-.15-1.309-.15-1.753-.138-2.909.654-2.893c-.845-.206-.94,1.711-.845,2.851a11.37,11.37,0,0,1,.127,2.217c-.078.491-.031,2.292-.031,2.63S47.892,390.383,47.892,390.383Z" transform="translate(-44.366 -377.31)" fill="#fd8767"/>
        <path id="Path_1818" data-name="Path 1818" d="M46.143,388.913c0-.951-.285-2.5-.285-3.389s.285-1.9.285-2.376v-3.411a1.651,1.651,0,0,0-.193.877c0,.19.106,1.141.106,1.425S46,383.258,46,383.559s-.243,1.631-.243,1.843.193,1.753.193,1.969S46.143,388.913,46.143,388.913Z" transform="translate(-44.222 -377.37)" fill="#fd8767"/>
      </g>
      <g id="Group_146" data-name="Group 146" transform="translate(33.815 33.774)">
        <path id="Path_1819" data-name="Path 1819" d="M66.221,401.889c-.131-1.48,1.554-7.046,2.14-8.44.861-2.046,1.108-7.693,1.171-8.206s.756-2.479,1.65-2.479c.484,0,.581.323.581.323s.113-4.538,1.529-4.523a1.717,1.717,0,0,1,1.282-1.421c.67,0,.743,1.454.743,2.046a.617.617,0,0,1,.533-.193c.315,0,.286.57.286,1.765s-.011,1.55-.011,2.229a44.945,44.945,0,0,1-.323,4.782,20.173,20.173,0,0,0,.1,3.424,9.237,9.237,0,0,1-.323,1.862c0,.3-2.529,11.006-2.237,12.091.75.124,1.817,0,1.985.731.653,2.833,1.716,7.255,1.921,7.69-1.393,0-9.8-.043-11.574-.043C65.187,412.235,66.448,404.442,66.221,401.889Z" transform="translate(-65.559 -377.143)" fill="#fd8767"/>
        <path id="Path_1820" data-name="Path 1820" d="M67,401.8c-.129-1.452,1.255-6.806,1.83-8.173.845-2.006,1.086-7.544,1.148-8.047s.517-2.534,1.394-2.534c.475,0,.57.317.57.317s.11-4.451,1.5-4.435a1.683,1.683,0,0,1,1.257-1.394c.657,0,.728,1.426.728,2.006a.607.607,0,0,1,.523-.189c.309,0,.28.558.28,1.731s-.011,1.521-.011,2.186a44.267,44.267,0,0,1-.317,4.689,19.765,19.765,0,0,0,.095,3.358,9.057,9.057,0,0,1-.317,1.827c0,.3-1.4,7.021-1.33,8.121A63.235,63.235,0,0,0,76.461,413.6c-1.888,0-7.589,0-9.624-.061C66.362,412.275,67.218,404.306,67,401.8Z" transform="translate(-65.659 -377.178)" fill="#fdac78"/>
        <path id="Path_1821" data-name="Path 1821" d="M72.388,392.512v-3.2c0-.665-.084-1.632-.084-2.5a26.056,26.056,0,0,0,.127-2.883,1.458,1.458,0,0,1,.19.972,14.182,14.182,0,0,0-.095,1.942c.079.618.095,2.171.095,2.392S72.388,392.512,72.388,392.512Z" transform="translate(-66.15 -377.737)" fill="#fd8767"/>
        <path id="Path_1822" data-name="Path 1822" d="M74.466,390.383A29.9,29.9,0,0,1,74.741,387c0-.549-.15-2.851-.15-3.3s.15-1.309.15-1.753.137-2.909-.655-2.893c.845-.206.94,1.711.845,2.851a11.519,11.519,0,0,0-.127,2.217c.079.491.032,2.292.032,2.63S74.466,390.383,74.466,390.383Z" transform="translate(-66.307 -377.31)" fill="#fd8767"/>
        <path id="Path_1823" data-name="Path 1823" d="M76.262,388.913c0-.951.286-2.5.286-3.389s-.286-1.9-.286-2.376v-3.411a1.642,1.642,0,0,1,.193.877c0,.19-.1,1.141-.1,1.425s.055,1.22.055,1.521.244,1.631.244,1.843-.193,1.753-.193,1.969S76.262,388.913,76.262,388.913Z" transform="translate(-66.497 -377.37)" fill="#fd8767"/>
      </g>
      <g id="Group_162" data-name="Group 162" transform="translate(1.459 25.165)">
        <g id="Group_147" data-name="Group 147" transform="translate(51.315)">
          <path id="Path_1824" data-name="Path 1824" d="M89.707,369.392a1.684,1.684,0,1,1-1.684-1.684A1.684,1.684,0,0,1,89.707,369.392Z" transform="translate(-86.339 -367.708)" fill="#8ee0f0"/>
          <path id="Path_1825" data-name="Path 1825" d="M88.572,368.073c.279,0,.716.316.716.512S88.572,368.073,88.572,368.073Z" transform="translate(-86.535 -367.74)" fill="#8ee0f0" style="mix-blend-mode: screen;isolation: isolate"/>
          <path id="Path_1826" data-name="Path 1826" d="M86.778,369.961a1.021,1.021,0,0,0,1.234,1.015c.175-.044-.281-.234-.638-.529S86.778,369.764,86.778,369.961Z" transform="translate(-86.377 -367.901)" fill="#8ee0f0" style="mix-blend-mode: screen;isolation: isolate"/>
        </g>
        <g id="Group_148" data-name="Group 148" transform="translate(7.25 5.881)">
          <path id="Path_1827" data-name="Path 1827" d="M41.41,375.837a1.684,1.684,0,1,1-1.684-1.683A1.684,1.684,0,0,1,41.41,375.837Z" transform="translate(-38.042 -374.154)" fill="#8ee0f0"/>
          <path id="Path_1828" data-name="Path 1828" d="M40.275,374.518c.279,0,.716.317.716.512S40.275,374.518,40.275,374.518Z" transform="translate(-38.238 -374.186)" fill="#8ee0f0" style="mix-blend-mode: screen;isolation: isolate"/>
          <path id="Path_1829" data-name="Path 1829" d="M38.481,376.407a1.021,1.021,0,0,0,1.234,1.015c.174-.044-.282-.235-.639-.53S38.481,376.209,38.481,376.407Z" transform="translate(-38.08 -374.347)" fill="#8ee0f0" style="mix-blend-mode: screen;isolation: isolate"/>
        </g>
        <g id="Group_149" data-name="Group 149" transform="translate(46.996 5.24)">
          <circle id="Ellipse_935" data-name="Ellipse 935" cx="1.415" cy="1.415" r="1.415" fill="#8ee0f0"/>
          <path id="Path_1830" data-name="Path 1830" d="M83.482,373.757c.234,0,.6.266.6.431S83.482,373.757,83.482,373.757Z" transform="translate(-81.77 -373.478)" fill="#8ee0f0" style="mix-blend-mode: screen;isolation: isolate"/>
          <path id="Path_1831" data-name="Path 1831" d="M81.975,375.344a.857.857,0,0,0,1.036.853c.147-.036-.236-.2-.536-.445S81.975,375.178,81.975,375.344Z" transform="translate(-81.638 -373.613)" fill="#8ee0f0" style="mix-blend-mode: screen;isolation: isolate"/>
        </g>
        <g id="Group_150" data-name="Group 150" transform="translate(33.904 13.925)">
          <circle id="Ellipse_936" data-name="Ellipse 936" cx="0.899" cy="0.899" r="0.899" fill="#8ee0f0"/>
          <path id="Path_1832" data-name="Path 1832" d="M68.448,383.165c.149,0,.382.169.382.273S68.448,383.165,68.448,383.165Z" transform="translate(-67.361 -382.987)" fill="#8ee0f0" style="mix-blend-mode: screen;isolation: isolate"/>
          <path id="Path_1833" data-name="Path 1833" d="M67.491,384.172a.544.544,0,0,0,.659.542c.093-.023-.151-.125-.341-.283S67.491,384.067,67.491,384.172Z" transform="translate(-67.277 -383.073)" fill="#8ee0f0" style="mix-blend-mode: screen;isolation: isolate"/>
        </g>
        <g id="Group_151" data-name="Group 151" transform="translate(18.225 12.832)">
          <circle id="Ellipse_937" data-name="Ellipse 937" cx="0.899" cy="0.899" r="0.899" fill="#8ee0f0"/>
          <path id="Path_1834" data-name="Path 1834" d="M51.263,381.967c.15,0,.382.169.382.274S51.263,381.967,51.263,381.967Z" transform="translate(-50.176 -381.79)" fill="#8ee0f0" style="mix-blend-mode: screen;isolation: isolate"/>
          <path id="Path_1835" data-name="Path 1835" d="M50.306,382.975a.545.545,0,0,0,.659.542c.093-.024-.151-.126-.34-.283S50.306,382.869,50.306,382.975Z" transform="translate(-50.092 -381.876)" fill="#8ee0f0" style="mix-blend-mode: screen;isolation: isolate"/>
        </g>
        <g id="Group_152" data-name="Group 152" transform="translate(22.225 17.82)">
          <path id="Path_1836" data-name="Path 1836" d="M55.565,387.8a.555.555,0,1,1-.555-.556A.554.554,0,0,1,55.565,387.8Z" transform="translate(-54.455 -387.24)" fill="#8ee0f0"/>
          <path id="Path_1837" data-name="Path 1837" d="M55.191,387.361c.092,0,.236.1.236.169S55.191,387.361,55.191,387.361Z" transform="translate(-54.519 -387.251)" fill="#8ee0f0" style="mix-blend-mode: screen;isolation: isolate"/>
          <path id="Path_1838" data-name="Path 1838" d="M54.6,387.983a.337.337,0,0,0,.407.335c.057-.015-.093-.078-.211-.175S54.6,387.918,54.6,387.983Z" transform="translate(-54.468 -387.304)" fill="#8ee0f0" style="mix-blend-mode: screen;isolation: isolate"/>
        </g>
        <g id="Group_153" data-name="Group 153" transform="translate(31.523 11.935)">
          <path id="Path_1839" data-name="Path 1839" d="M65.757,381.344a.556.556,0,1,1-.556-.555A.555.555,0,0,1,65.757,381.344Z" transform="translate(-64.646 -380.789)" fill="#8ee0f0"/>
          <path id="Path_1840" data-name="Path 1840" d="M65.383,380.909c.092,0,.236.1.236.169S65.383,380.909,65.383,380.909Z" transform="translate(-64.711 -380.8)" fill="#8ee0f0" style="mix-blend-mode: screen;isolation: isolate"/>
          <path id="Path_1841" data-name="Path 1841" d="M64.791,381.531a.336.336,0,0,0,.407.335c.057-.014-.092-.077-.21-.174S64.791,381.467,64.791,381.531Z" transform="translate(-64.659 -380.852)" fill="#8ee0f0" style="mix-blend-mode: screen;isolation: isolate"/>
        </g>
        <g id="Group_154" data-name="Group 154" transform="translate(33.287 20.671)">
          <path id="Path_1842" data-name="Path 1842" d="M67.69,390.92a.555.555,0,1,1-.555-.556A.555.555,0,0,1,67.69,390.92Z" transform="translate(-66.58 -390.364)" fill="#8ee0f0"/>
          <path id="Path_1843" data-name="Path 1843" d="M67.316,390.485c.092,0,.236.1.236.169S67.316,390.485,67.316,390.485Z" transform="translate(-66.644 -390.375)" fill="#8ee0f0" style="mix-blend-mode: screen;isolation: isolate"/>
          <path id="Path_1844" data-name="Path 1844" d="M66.725,391.107a.336.336,0,0,0,.407.335c.057-.015-.093-.078-.211-.174S66.725,391.043,66.725,391.107Z" transform="translate(-66.593 -390.428)" fill="#8ee0f0" style="mix-blend-mode: screen;isolation: isolate"/>
        </g>
        <g id="Group_155" data-name="Group 155" transform="translate(34.288 11.471)">
          <path id="Path_1845" data-name="Path 1845" d="M68.7,380.79a.509.509,0,1,1-.509-.509A.509.509,0,0,1,68.7,380.79Z" transform="translate(-67.677 -380.281)" fill="#8ee0f0"/>
          <path id="Path_1846" data-name="Path 1846" d="M68.352,380.391c.085,0,.217.1.217.155S68.352,380.391,68.352,380.391Z" transform="translate(-67.736 -380.291)" fill="#8ee0f0" style="mix-blend-mode: screen;isolation: isolate"/>
          <path id="Path_1847" data-name="Path 1847" d="M67.81,380.962a.308.308,0,0,0,.373.307c.053-.014-.085-.071-.193-.161S67.81,380.9,67.81,380.962Z" transform="translate(-67.689 -380.339)" fill="#8ee0f0" style="mix-blend-mode: screen;isolation: isolate"/>
        </g>
        <g id="Group_156" data-name="Group 156" transform="translate(50.772 11.219)">
          <path id="Path_1848" data-name="Path 1848" d="M90.2,382.231A2.227,2.227,0,1,1,87.971,380,2.226,2.226,0,0,1,90.2,382.231Z" transform="translate(-85.744 -380.004)" fill="#8ee0f0"/>
          <path id="Path_1849" data-name="Path 1849" d="M88.7,380.486c.369,0,.947.419.947.677S88.7,380.486,88.7,380.486Z" transform="translate(-86.003 -380.046)" fill="#8ee0f0" style="mix-blend-mode: screen;isolation: isolate"/>
          <path id="Path_1850" data-name="Path 1850" d="M86.325,382.983a1.35,1.35,0,0,0,1.632,1.343c.231-.058-.372-.31-.844-.7S86.325,382.722,86.325,382.983Z" transform="translate(-85.795 -380.259)" fill="#8ee0f0" style="mix-blend-mode: screen;isolation: isolate"/>
        </g>
        <g id="Group_157" data-name="Group 157" transform="translate(6.239 14.823)">
          <circle id="Ellipse_938" data-name="Ellipse 938" cx="2.227" cy="2.227" r="2.227" fill="#8ee0f0"/>
          <path id="Path_1851" data-name="Path 1851" d="M39.887,384.437c.37,0,.948.419.948.677S39.887,384.437,39.887,384.437Z" transform="translate(-37.193 -383.997)" fill="#8ee0f0" style="mix-blend-mode: screen;isolation: isolate"/>
          <path id="Path_1852" data-name="Path 1852" d="M37.515,386.934a1.35,1.35,0,0,0,1.632,1.343c.231-.058-.372-.31-.844-.7S37.515,386.673,37.515,386.934Z" transform="translate(-36.985 -384.21)" fill="#8ee0f0" style="mix-blend-mode: screen;isolation: isolate"/>
        </g>
        <g id="Group_158" data-name="Group 158" transform="translate(50.4 20.676)">
          <path id="Path_1853" data-name="Path 1853" d="M92.417,393.911a3.54,3.54,0,1,1-3.541-3.541A3.541,3.541,0,0,1,92.417,393.911Z" transform="translate(-85.336 -390.37)" fill="#8ee0f0"/>
          <path id="Path_1854" data-name="Path 1854" d="M90.031,391.136c.588,0,1.505.665,1.505,1.077S90.031,391.136,90.031,391.136Z" transform="translate(-85.747 -390.437)" fill="#8ee0f0" style="mix-blend-mode: screen;isolation: isolate"/>
          <path id="Path_1855" data-name="Path 1855" d="M86.259,395.107a2.146,2.146,0,0,0,2.6,2.135c.367-.092-.592-.494-1.342-1.114C86.78,395.522,86.259,394.692,86.259,395.107Z" transform="translate(-85.417 -390.775)" fill="#8ee0f0" style="mix-blend-mode: screen;isolation: isolate"/>
        </g>
        <g id="Group_159" data-name="Group 159" transform="translate(1.662 21.475)">
          <circle id="Ellipse_939" data-name="Ellipse 939" cx="4.577" cy="4.577" r="4.577" fill="#8ee0f0"/>
          <path id="Path_1856" data-name="Path 1856" d="M37.988,392.236c.759,0,1.947.859,1.947,1.392S37.988,392.236,37.988,392.236Z" transform="translate(-32.45 -391.332)" fill="#8ee0f0" style="mix-blend-mode: screen;isolation: isolate"/>
          <path id="Path_1857" data-name="Path 1857" d="M33.111,397.369a2.774,2.774,0,0,0,3.356,2.76c.474-.119-.765-.638-1.734-1.439C33.784,397.906,33.111,396.833,33.111,397.369Z" transform="translate(-32.022 -391.769)" fill="#8ee0f0" style="mix-blend-mode: screen;isolation: isolate"/>
        </g>
        <g id="Group_160" data-name="Group 160" transform="translate(0 8.335)">
          <path id="Path_1858" data-name="Path 1858" d="M35.493,379.541a2.7,2.7,0,1,1-2.7-2.7A2.7,2.7,0,0,1,35.493,379.541Z" transform="translate(-30.096 -376.843)" fill="#8ee0f0"/>
          <path id="Path_1859" data-name="Path 1859" d="M33.675,377.426c.447,0,1.148.507,1.148.821S33.675,377.426,33.675,377.426Z" transform="translate(-30.41 -376.894)" fill="#8ee0f0" style="mix-blend-mode: screen;isolation: isolate"/>
          <path id="Path_1860" data-name="Path 1860" d="M30.8,380.453a1.636,1.636,0,0,0,1.978,1.628c.279-.07-.451-.377-1.023-.849S30.8,380.136,30.8,380.453Z" transform="translate(-30.158 -377.152)" fill="#8ee0f0" style="mix-blend-mode: screen;isolation: isolate"/>
        </g>
        <g id="Group_161" data-name="Group 161" transform="translate(43.49 15.562)">
          <path id="Path_1861" data-name="Path 1861" d="M82.216,386.992a2.227,2.227,0,1,1-2.226-2.227A2.227,2.227,0,0,1,82.216,386.992Z" transform="translate(-77.763 -384.765)" fill="#8ee0f0"/>
          <path id="Path_1862" data-name="Path 1862" d="M80.716,385.247c.37,0,.947.418.947.677S80.716,385.247,80.716,385.247Z" transform="translate(-78.022 -384.807)" fill="#8ee0f0" style="mix-blend-mode: screen;isolation: isolate"/>
          <path id="Path_1863" data-name="Path 1863" d="M78.344,387.744a1.35,1.35,0,0,0,1.632,1.343c.231-.058-.372-.311-.844-.7S78.344,387.483,78.344,387.744Z" transform="translate(-77.814 -385.02)" fill="#8ee0f0" style="mix-blend-mode: screen;isolation: isolate"/>
        </g>
      </g>
    </g>
  </g>
</svg>
