<svg xmlns="http://www.w3.org/2000/svg" xmlns:xlink="http://www.w3.org/1999/xlink" width="118" height="118" viewBox="0 0 118 118">
  <defs>
    <radialGradient id="radial-gradient" cx="0.5" cy="0.5" r="0.5" gradientTransform="translate(0)" gradientUnits="objectBoundingBox">
      <stop offset="0" stop-color="#ffadad"/>
      <stop offset="0.995" stop-color="#fff"/>
    </radialGradient>
  </defs>
  <g id="Group_367" data-name="Group 367" transform="translate(0.236)">
    <g id="Ellipse_964" data-name="Ellipse 964" transform="translate(-0.236 0)" fill="#fff" stroke="#3a8eec" stroke-width="2">
      <circle cx="59" cy="59" r="59" stroke="none"/>
      <circle cx="59" cy="59" r="58" fill="none"/>
    </g>
    <g id="Group_363" data-name="Group 363" transform="translate(24.513 13.55)">
      <text id="Massage_mặt" data-name="Massage mặt" transform="translate(34.251 82.45)" fill="#0a0548" font-size="12" font-family="Montserrat-SemiBold, Montserrat" font-weight="600"><tspan x="-41.28" y="0">Massage mặt</tspan></text>
      <g id="Group_202" data-name="Group 202" transform="translate(0 0)">
        <g id="Group_183" data-name="Group 183" transform="translate(0 6.762)">
          <path id="Path_1927" data-name="Path 1927" d="M301.754,366.221l.315.577.577.315-.577.316-.315.577-.315-.577-.577-.316.577-.315Z" transform="translate(-242.26 -349.053)" fill="#68b5d9"/>
          <path id="Path_1928" data-name="Path 1928" d="M246.507,400.425l.315.577.577.315-.577.315-.315.577-.316-.577-.577-.315.577-.315Z" transform="translate(-237.441 -352.036)" fill="#68b5d9"/>
          <path id="Path_1929" data-name="Path 1929" d="M310.707,387.01l.316.577.577.316-.577.315-.316.577-.315-.577-.577-.315.577-.316Z" transform="translate(-243.041 -350.866)" fill="#68b5d9"/>
          <path id="Path_1930" data-name="Path 1930" d="M297.709,347.413l.5.917.917.5-.917.5-.5.917-.5-.917-.917-.5.917-.5Z" transform="translate(-241.861 -347.413)" fill="#68b5d9"/>
          <path id="Path_1931" data-name="Path 1931" d="M238.079,381.685l.5.917.917.5-.917.5-.5.917-.5-.917-.917-.5.917-.5Z" transform="translate(-236.66 -350.402)" fill="#68b5d9"/>
          <path id="Path_1932" data-name="Path 1932" d="M307.967,401.4l.556,1.017,1.017.556-1.017.556-.556,1.017-.556-1.017-1.017-.556,1.017-.556Z" transform="translate(-242.742 -352.122)" fill="#68b5d9"/>
          <path id="Path_1933" data-name="Path 1933" d="M302.534,381.093l.422.772.772.422-.772.422-.422.772-.422-.772-.772-.422.772-.422Z" transform="translate(-242.301 -350.35)" fill="#68b5d9"/>
          <path id="Path_1934" data-name="Path 1934" d="M248.352,383.484l.422.772.772.422-.772.422-.422.772-.422-.772-.772-.422.772-.422Z" transform="translate(-237.576 -350.559)" fill="#68b5d9"/>
          <path id="Path_1935" data-name="Path 1935" d="M244.924,354.231l.422.772.772.422-.772.422-.422.772-.422-.772-.772-.422L244.5,355Z" transform="translate(-237.277 -348.008)" fill="#68b5d9"/>
          <path id="Path_1936" data-name="Path 1936" d="M246.737,371.217l.513.939.939.513-.939.513-.513.939-.513-.939-.939-.513.939-.513Z" transform="translate(-237.413 -349.489)" fill="#68b5d9"/>
        </g>
        <g id="Group_201" data-name="Group 201" transform="translate(5.426)">
          <g id="Group_197" data-name="Group 197">
            <path id="Path_1937" data-name="Path 1937" d="M290.966,378.608a1.106,1.106,0,0,1,1.518-.02,6.622,6.622,0,0,1-.709,3.912,15.442,15.442,0,0,0-1.145,3.019c-.1.508-.876.559-.876,0A55.3,55.3,0,0,1,290.966,378.608Z" transform="translate(-246.717 -343.344)" fill="#fdac78"/>
            <path id="Path_1938" data-name="Path 1938" d="M259.634,378.608a1.106,1.106,0,0,0-1.518-.02,6.622,6.622,0,0,0,.709,3.912,15.432,15.432,0,0,1,1.145,3.019c.1.508.876.559.876,0A55.3,55.3,0,0,0,259.634,378.608Z" transform="translate(-243.95 -343.344)" fill="#fdac78"/>
            <g id="Group_184" data-name="Group 184" transform="translate(0 46.989)">
              <path id="Path_1939" data-name="Path 1939" d="M296.281,409.3c-5.317-2.265-14.558-.814-15.553-7.863-.194-1.38.382-9.358.981-9.958l-9.138,3.3-9.139-3.3c.6.6,1.177,8.578.981,9.958-.995,7.048-10.236,5.6-15.553,7.863-6.256,2.664-6.256,5.391-6.256,5.391l29.967-.015,29.967.015S302.538,411.969,296.281,409.3Z" transform="translate(-242.605 -391.483)" fill="#fdac78"/>
              <path id="Path_1940" data-name="Path 1940" d="M274.608,399.557a77.191,77.191,0,0,0-8.7-6.392,24.826,24.826,0,0,1,.361,2.9c2.341,3.49,5.165,6.482,8.339,6.482,3.229.005,6-2.992,8.34-6.482a24.923,24.923,0,0,1,.361-2.9A77.285,77.285,0,0,0,274.608,399.557Z" transform="translate(-244.637 -391.63)" fill="#fd8767"/>
            </g>
            <path id="Path_1941" data-name="Path 1941" d="M285.81,351.112c-3.663-3.663-11.451-4.2-11.978-4.2s-8.317.538-11.98,4.2-6.267,10.029-4,18.872c2.289,8.935,1.285,7.459,2.6,11.936,1.288,4.385,6.034,8.969,7.2,10.136s3.288,3.466,6.177,3.468,5.012-2.3,6.179-3.468,5.914-5.751,7.2-10.136c1.315-4.477.311-3,2.6-11.936C292.077,361.14,289.477,354.779,285.81,351.112Z" transform="translate(-243.861 -340.607)" fill="#fdac78"/>
            <g id="Group_188" data-name="Group 188" transform="translate(32.946 29.067)">
              <path id="Path_1942" data-name="Path 1942" d="M283.345,375.513a7.907,7.907,0,0,1,3.85,1.419c.394.394-3.125,2.09-4.238,2.09a30.168,30.168,0,0,1-3.464-.535c-.253,0-.723.027-.723-.162,0-.326.325-.6.325-.778S280.235,375.513,283.345,375.513Z" transform="translate(-278.706 -372.168)" fill="#fff"/>
              <g id="Group_185" data-name="Group 185" transform="translate(2.346 2.767)">
                <circle id="Ellipse_940" data-name="Ellipse 940" cx="1.946" cy="1.946" r="1.946" fill="#842316"/>
                <circle id="Ellipse_941" data-name="Ellipse 941" cx="1.295" cy="1.295" r="1.295" transform="translate(0.651 0.651)"/>
                <path id="Path_1943" data-name="Path 1943" d="M284.333,376.826c-.137.136-.257.094-.382-.031s-.21-.287-.073-.424.277-.075.4.051S284.47,376.689,284.333,376.826Z" transform="translate(-281.491 -375.003)" fill="#fff"/>
              </g>
              <path id="Path_1944" data-name="Path 1944" d="M282.683,379.157a7.026,7.026,0,0,0,4.258-1.811c.063-.054.709-.1.447.1C287.109,377.671,284.5,379.45,282.683,379.157Z" transform="translate(-279.047 -372.324)"/>
              <g id="Group_186" data-name="Group 186" transform="translate(5.219 4.713)">
                <path id="Path_1945" data-name="Path 1945" d="M286.628,378.1c-.044.127.461.126.526.26s-.023-.186-.14-.3A.263.263,0,0,0,286.628,378.1Z" transform="translate(-284.61 -377.098)"/>
                <path id="Path_1946" data-name="Path 1946" d="M287.731,377.012c.107,0,.52.287.847.193s-.635.355-.811.178A.285.285,0,0,1,287.731,377.012Z" transform="translate(-284.701 -377.012)"/>
                <path id="Path_1947" data-name="Path 1947" d="M284.417,379.093a1.357,1.357,0,0,1,.548.228c.1.1-.108-.351-.177-.351A2.27,2.27,0,0,0,284.417,379.093Z" transform="translate(-284.417 -377.183)"/>
                <path id="Path_1948" data-name="Path 1948" d="M286.171,378.407a1.352,1.352,0,0,1,.506.231c.091.084-.115-.364-.178-.361A2.048,2.048,0,0,0,286.171,378.407Z" transform="translate(-284.57 -377.122)"/>
                <path id="Path_1949" data-name="Path 1949" d="M285.434,378.755a1.25,1.25,0,0,1,.447.229c.079.079-.088-.329-.145-.329A1.878,1.878,0,0,0,285.434,378.755Z" transform="translate(-284.506 -377.155)"/>
                <path id="Path_1950" data-name="Path 1950" d="M285.812,378.584a1.165,1.165,0,0,1,.421.216c.074.075-.082-.311-.136-.311A1.74,1.74,0,0,0,285.812,378.584Z" transform="translate(-284.539 -377.141)"/>
                <path id="Path_1951" data-name="Path 1951" d="M284.979,378.98a1.294,1.294,0,0,1,.488.186c.1.1-.128-.325-.244-.325A.44.44,0,0,0,284.979,378.98Z" transform="translate(-284.466 -377.172)"/>
                <path id="Path_1952" data-name="Path 1952" d="M286.991,377.882a1.3,1.3,0,0,1,.488.186c.1.1-.128-.325-.244-.325A.436.436,0,0,0,286.991,377.882Z" transform="translate(-284.642 -377.076)"/>
                <path id="Path_1953" data-name="Path 1953" d="M287.228,377.656a1.3,1.3,0,0,1,.487.186c.1.1-.128-.325-.244-.325A.436.436,0,0,0,287.228,377.656Z" transform="translate(-284.662 -377.056)"/>
              </g>
              <path id="Path_1954" data-name="Path 1954" d="M279.194,372.846c-.69.45-1,1.921,1.457,1.14s2.341-1,4.293-1a6.789,6.789,0,0,1,3.38.8A8.829,8.829,0,0,0,284.847,372,8.508,8.508,0,0,0,279.194,372.846Z" transform="translate(-278.7 -371.849)" fill="#340602"/>
              <path id="Path_1955" data-name="Path 1955" d="M279.236,377.231a1.049,1.049,0,0,0-.312-.41,7.754,7.754,0,0,1,3.947-1.984,7,7,0,0,1,4.628,1.452.787.787,0,0,1-.871.2,10.173,10.173,0,0,0-3.69-1.035A5.02,5.02,0,0,0,279.236,377.231Z" transform="translate(-278.719 -372.108)" fill="#fd8767"/>
              <path id="Path_1956" data-name="Path 1956" d="M278.77,376.936c.158-.157,2.367-1.951,3.928-1.951a7.987,7.987,0,0,1,4.328,1.061c1.2.78.045-.278-.411-.516a8.057,8.057,0,0,0-3.8-.825C281.047,374.795,278.77,376.936,278.77,376.936Z" transform="translate(-278.706 -372.097)"/>
              <path id="Path_1957" data-name="Path 1957" d="M283.067,375.807a7.031,7.031,0,0,1,3.749,1.519c.068.068.246-.085.446-.285.229-.23-2.442-1.575-4.2-1.528a4.65,4.65,0,0,0-3.826,1.813A4.82,4.82,0,0,1,283.067,375.807Z" transform="translate(-278.747 -372.168)"/>
              <g id="Group_187" data-name="Group 187" transform="translate(4.639 3.12)">
                <path id="Path_1958" data-name="Path 1958" d="M283.782,375.492a3.149,3.149,0,0,0,.647-.194c.274-.127-.083.162-.173.253S283.782,375.492,283.782,375.492Z" transform="translate(-283.782 -375.266)"/>
                <path id="Path_1959" data-name="Path 1959" d="M284.486,375.587a2.487,2.487,0,0,0,.885-.215c.226-.14-.078.324-.269.359A1.647,1.647,0,0,1,284.486,375.587Z" transform="translate(-283.843 -375.273)"/>
                <path id="Path_1960" data-name="Path 1960" d="M285.4,375.807c-.125-.046.514-.047.714-.127s-.089.246-.281.283S285.469,375.833,285.4,375.807Z" transform="translate(-283.921 -375.301)"/>
                <path id="Path_1961" data-name="Path 1961" d="M286.078,376.06a3.426,3.426,0,0,0,.666-.064c.127-.041-.047.212-.214.246S286.078,376.06,286.078,376.06Z" transform="translate(-283.982 -375.33)"/>
                <path id="Path_1962" data-name="Path 1962" d="M286.763,376.34c0-.134.477.033.581-.072s-.083.168-.232.239A.261.261,0,0,1,286.763,376.34Z" transform="translate(-284.042 -375.352)"/>
                <path id="Path_1963" data-name="Path 1963" d="M287.364,376.636a1.422,1.422,0,0,0,.753-.084c.22-.142-.14.378-.377.378S287.364,376.636,287.364,376.636Z" transform="translate(-284.094 -375.376)"/>
              </g>
            </g>
            <g id="Group_192" data-name="Group 192" transform="translate(17.322 29.032)">
              <path id="Path_1964" data-name="Path 1964" d="M266.671,375.475a7.9,7.9,0,0,0-3.85,1.419c-.393.394,3.126,2.089,4.239,2.089a30.226,30.226,0,0,0,3.463-.534c.254,0,.724.027.724-.163,0-.325-.326-.6-.326-.777S269.781,375.475,266.671,375.475Z" transform="translate(-261.687 -372.13)" fill="#fff"/>
              <g id="Group_189" data-name="Group 189" transform="translate(3.386 2.767)">
                <path id="Path_1965" data-name="Path 1965" d="M269.183,376.787a1.946,1.946,0,1,1-1.946-1.945A1.946,1.946,0,0,1,269.183,376.787Z" transform="translate(-265.291 -374.842)" fill="#842316"/>
                <circle id="Ellipse_942" data-name="Ellipse 942" cx="1.295" cy="1.295" r="1.295" transform="translate(0.651 0.65)"/>
                <path id="Path_1966" data-name="Path 1966" d="M268.354,376.787c-.137.137-.257.095-.382-.031s-.21-.287-.073-.423.278-.075.4.051S268.491,376.65,268.354,376.787Z" transform="translate(-265.512 -374.965)" fill="#fff"/>
              </g>
              <path id="Path_1967" data-name="Path 1967" d="M267.686,379.119a7.024,7.024,0,0,1-4.257-1.811c-.063-.054-.709-.1-.447.1C263.26,377.633,265.871,379.411,267.686,379.119Z" transform="translate(-261.699 -372.286)"/>
              <g id="Group_190" data-name="Group 190" transform="translate(0.46 4.712)">
                <path id="Path_1968" data-name="Path 1968" d="M264.144,378.062c.045.127-.46.126-.525.26s.022-.186.14-.3A.262.262,0,0,1,264.144,378.062Z" transform="translate(-262.218 -377.059)"/>
                <path id="Path_1969" data-name="Path 1969" d="M263,376.973c-.107,0-.52.288-.848.194s.635.355.812.178A.288.288,0,0,0,263,376.973Z" transform="translate(-262.086 -376.973)"/>
                <path id="Path_1970" data-name="Path 1970" d="M266.352,379.055a1.354,1.354,0,0,0-.547.228c-.1.1.107-.351.177-.351A2.273,2.273,0,0,1,266.352,379.055Z" transform="translate(-262.409 -377.144)"/>
                <path id="Path_1971" data-name="Path 1971" d="M264.6,378.369a1.355,1.355,0,0,0-.506.23c-.091.085.116-.363.179-.361A2.039,2.039,0,0,1,264.6,378.369Z" transform="translate(-262.26 -377.083)"/>
                <path id="Path_1972" data-name="Path 1972" d="M265.346,378.716a1.243,1.243,0,0,0-.447.229c-.079.079.088-.329.144-.329A1.851,1.851,0,0,1,265.346,378.716Z" transform="translate(-262.33 -377.116)"/>
                <path id="Path_1973" data-name="Path 1973" d="M264.971,378.546a1.159,1.159,0,0,0-.421.216c-.075.074.082-.311.136-.311A1.737,1.737,0,0,1,264.971,378.546Z" transform="translate(-262.3 -377.102)"/>
                <path id="Path_1974" data-name="Path 1974" d="M265.8,378.941a1.3,1.3,0,0,0-.488.186c-.1.1.128-.325.245-.325A.436.436,0,0,1,265.8,378.941Z" transform="translate(-262.365 -377.133)"/>
                <path id="Path_1975" data-name="Path 1975" d="M263.784,377.844a1.3,1.3,0,0,0-.488.186c-.1.1.128-.325.245-.325A.436.436,0,0,1,263.784,377.844Z" transform="translate(-262.19 -377.037)"/>
                <path id="Path_1976" data-name="Path 1976" d="M263.548,377.618a1.3,1.3,0,0,0-.488.186c-.1.1.128-.325.245-.325A.436.436,0,0,1,263.548,377.618Z" transform="translate(-262.169 -377.017)"/>
              </g>
              <path id="Path_1977" data-name="Path 1977" d="M270.712,372.807c.689.451,1,1.921-1.457,1.141s-2.341-1.006-4.293-1.006a6.781,6.781,0,0,0-3.38.8,8.8,8.8,0,0,1,3.477-1.778A8.513,8.513,0,0,1,270.712,372.807Z" transform="translate(-261.582 -371.811)" fill="#340602"/>
              <path id="Path_1978" data-name="Path 1978" d="M270.769,377.193a1.046,1.046,0,0,1,.313-.411,7.767,7.767,0,0,0-3.948-1.984,7,7,0,0,0-4.627,1.452.787.787,0,0,0,.871.2,10.179,10.179,0,0,1,3.689-1.034A5.016,5.016,0,0,1,270.769,377.193Z" transform="translate(-261.663 -372.07)" fill="#fd8767"/>
              <path id="Path_1979" data-name="Path 1979" d="M271.216,376.9c-.158-.158-2.367-1.952-3.929-1.952a7.981,7.981,0,0,0-4.327,1.061c-1.2.781-.045-.277.411-.515a8.048,8.048,0,0,1,3.8-.826C268.939,374.757,271.216,376.9,271.216,376.9Z" transform="translate(-261.656 -372.059)"/>
              <path id="Path_1980" data-name="Path 1980" d="M266.99,375.769a7.031,7.031,0,0,0-3.748,1.519c-.068.068-.246-.085-.446-.285-.23-.23,2.441-1.575,4.194-1.528a4.651,4.651,0,0,1,3.826,1.813A4.818,4.818,0,0,0,266.99,375.769Z" transform="translate(-261.687 -372.13)"/>
              <g id="Group_191" data-name="Group 191" transform="translate(0.893 3.12)">
                <path id="Path_1981" data-name="Path 1981" d="M266.971,375.454a3.13,3.13,0,0,1-.646-.194c-.274-.127.082.163.173.253S266.971,375.454,266.971,375.454Z" transform="translate(-262.88 -375.228)"/>
                <path id="Path_1982" data-name="Path 1982" d="M266.247,375.549a2.48,2.48,0,0,1-.885-.215c-.227-.14.078.324.268.359A1.673,1.673,0,0,0,266.247,375.549Z" transform="translate(-262.797 -375.235)"/>
                <path id="Path_1983" data-name="Path 1983" d="M265.352,375.769c.126-.046-.513-.047-.714-.127s.089.245.281.283S265.279,375.8,265.352,375.769Z" transform="translate(-262.735 -375.263)"/>
                <path id="Path_1984" data-name="Path 1984" d="M264.679,376.022a3.429,3.429,0,0,1-.666-.063c-.127-.041.047.212.214.245S264.679,376.022,264.679,376.022Z" transform="translate(-262.683 -375.292)"/>
                <path id="Path_1985" data-name="Path 1985" d="M264,376.3c0-.134-.476.033-.582-.072s.082.168.231.239S264,376.411,264,376.3Z" transform="translate(-262.633 -375.314)"/>
                <path id="Path_1986" data-name="Path 1986" d="M263.382,376.6a1.425,1.425,0,0,1-.754-.083c-.22-.143.141.377.377.377S263.382,376.6,263.382,376.6Z" transform="translate(-262.56 -375.338)"/>
              </g>
            </g>
            <g id="Group_193" data-name="Group 193" transform="translate(25.566 45.76)">
              <path id="Path_1987" data-name="Path 1987" d="M274.993,391.456c-1.075,0-3.491-.385-4.379-1.151,1.2,1.279,1.667,3.491,4.379,3.491s3.178-2.212,4.379-3.491C278.484,391.071,276.068,391.456,274.993,391.456Z" transform="translate(-270.614 -390.152)" fill="#ea0030"/>
              <path id="Path_1988" data-name="Path 1988" d="M276.015,390.137c-.208,0-.853.308-1.022.308s-.813-.308-1.022-.308c-1.434,0-2.371.631-3.356.153,1.313,1.134,3.948,1.151,4.379,1.151s3.066-.017,4.379-1.151C278.386,390.768,277.449,390.137,276.015,390.137Z" transform="translate(-270.614 -390.137)" fill="#ea3359"/>
            </g>
            <g id="Group_194" data-name="Group 194" transform="translate(27.325 41.892)">
              <path id="Path_1989" data-name="Path 1989" d="M275.411,386.57a2.008,2.008,0,0,0,1.31-.56c.329-.328,1.311.177,1.311.177s-.966-.188-1.144-.01S276.525,386.649,275.411,386.57Z" transform="translate(-272.791 -385.899)" fill="#fd8767"/>
              <path id="Path_1990" data-name="Path 1990" d="M275.161,386.57a2.009,2.009,0,0,1-1.31-.56c-.328-.328-1.31.177-1.31.177s.966-.188,1.143-.01S274.048,386.649,275.161,386.57Z" transform="translate(-272.541 -385.899)" fill="#fd8767"/>
            </g>
            <g id="Group_196" data-name="Group 196" transform="translate(11.71)">
              <g id="Group_195" data-name="Group 195">
                <path id="Path_1991" data-name="Path 1991" d="M266.4,348.309c-.416-.416-.733-2.4-.733-3.734a5.112,5.112,0,0,1,3.867-4.467c2.467-.4,3.741.5,4.654.5s2.514-.533,3.981-.133,4.268,2.434,4.568,4.1.027,3.231-.647,3.906S266.4,348.309,266.4,348.309Z" transform="translate(-256.327 -340.004)" fill="#842316"/>
                <path id="Path_1992" data-name="Path 1992" d="M269.384,344.416c-.073-.846-.285,3.1.742,3.831s1.1-.508,1.1-.508A4.846,4.846,0,0,1,269.384,344.416Z" transform="translate(-256.645 -340.379)" fill="#340602"/>
                <path id="Path_1993" data-name="Path 1993" d="M272.562,344.909c-.074-.847-.285,3.1.742,3.831s1.1-.508,1.1-.508A4.849,4.849,0,0,1,272.562,344.909Z" transform="translate(-256.922 -340.422)" fill="#340602"/>
                <path id="Path_1994" data-name="Path 1994" d="M266.977,344.342c0-.85-.4,3.065.3,3.881s.831-.411.831-.411A5.613,5.613,0,0,1,266.977,344.342Z" transform="translate(-256.431 -340.372)" fill="#340602"/>
                <path id="Path_1995" data-name="Path 1995" d="M290.546,364.949c.311.871.861-6.093-.518-9.2s-6.282-6.757-7.58-7.247a36.72,36.72,0,0,0-8.611-1.743,35.028,35.028,0,0,0-10.528,2.588c-2.28.97-5.956,3.867-6.712,5.868s-1.934,5.538-.456,7.836c.723-3.369,12.281-8.565,17.526-8.565S288.352,358.816,290.546,364.949Z" transform="translate(-255.434 -340.593)" fill="#d9d9d9"/>
              </g>
              <path id="Path_1996" data-name="Path 1996" d="M269.7,360.765a13.291,13.291,0,0,0,6.639,5.4c1.826.466,11.14,1.18,12.751,6.992,2.611-4.658,1.433-8.336.944-9.459-.633-1.457-5.568-7.5-12.57-8.431-5.354-.71-17.3,1.7-21.1,8.165-1.534,2.467,2,9.667,2,9.667s-.4-4.333,2.333-5.733S268.836,364.5,269.7,360.765Z" transform="translate(-255.481 -341.325)" fill="#842316"/>
              <path id="Path_1997" data-name="Path 1997" d="M283.058,358.8c3.84,1.734,6.179,4.263,6.846,6.219C288.582,362.8,284.335,359.506,283.058,358.8Z" transform="translate(-257.843 -341.644)" fill="#340602"/>
              <path id="Path_1998" data-name="Path 1998" d="M290.558,363.835c1.611.79,2.445,3.534,2.445,4.623A12.61,12.61,0,0,0,290.558,363.835Z" transform="translate(-258.498 -342.083)" fill="#340602"/>
            </g>
          </g>
          <path id="Path_1999" data-name="Path 1999" d="M270.7,382.405a5.934,5.934,0,1,1-5.933-5.934A5.934,5.934,0,0,1,270.7,382.405Z" transform="translate(-244.021 -343.185)" fill="url(#radial-gradient)" style="mix-blend-mode: multiply;isolation: isolate"/>
          <g id="Group_200" data-name="Group 200" transform="translate(3.04 34.614)">
            <path id="Path_2000" data-name="Path 2000" d="M249.351,410.806,260.2,408.22a3.128,3.128,0,0,1-.157,1.3,23.582,23.582,0,0,0-.915,3.553c-.233,1.742-.156,2.836-.5,3.038-.756.007-9.274.041-9.274.041a14.874,14.874,0,0,0,.958-3.023A8.843,8.843,0,0,0,249.351,410.806Z" transform="translate(-246.234 -380.568)" fill="#fd8767"/>
            <path id="Path_2001" data-name="Path 2001" d="M253.505,406.677s1.16.663,1.222,1.19.083,1.678-.269,1.781S253.505,406.677,253.505,406.677Z" transform="translate(-246.596 -380.433)" fill="#fd8767"/>
            <path id="Path_2002" data-name="Path 2002" d="M259.786,404.437c.51,0,1.156,2.063,1.156,3.025a7.651,7.651,0,0,1-1.145,3.223C259.488,410.993,259.786,404.437,259.786,404.437Z" transform="translate(-247.133 -380.238)" fill="#fdac78"/>
            <g id="Group_198" data-name="Group 198" transform="translate(3.513 0)">
              <path id="Path_2003" data-name="Path 2003" d="M258.731,406.67l-4.58.8L249.822,382.8a2.418,2.418,0,0,1,1.964-2.8l2.2-.386Z" transform="translate(-249.785 -378.073)" fill="#d9d9d9"/>
              <path id="Path_2004" data-name="Path 2004" d="M259.132,406.574l2.844-17.37L260.1,378.517l-5.716,1Z" transform="translate(-250.186 -377.977)" fill="#d9d9d9"/>
              <path id="Rectangle_636" data-name="Rectangle 636" d="M0,0H.941A2.184,2.184,0,0,1,3.125,2.184V8.666A2.184,2.184,0,0,1,.941,10.85H0a0,0,0,0,1,0,0V0A0,0,0,0,1,0,0Z" transform="matrix(0.985, -0.173, 0.173, 0.985, 9.916, 0.54)" fill="#c66c40"/>
              <path id="Path_2005" data-name="Path 2005" d="M261.951,396.809l-.423.075.933-5.729a.615.615,0,0,1,.714.7l-.723,4.442A.614.614,0,0,1,261.951,396.809Z" transform="translate(-250.809 -379.079)" fill="#ea0030"/>
              <rect id="Rectangle_637" data-name="Rectangle 637" width="0.537" height="1.467" transform="translate(13.39 2.26) rotate(-9.947)" fill="#ea3359"/>
              <rect id="Rectangle_638" data-name="Rectangle 638" width="0.537" height="1.467" transform="translate(14.186 6.799) rotate(-9.958)" fill="#ea3359"/>
              <rect id="Rectangle_639" data-name="Rectangle 639" width="0.413" height="6.237" transform="translate(0.129 7.765) rotate(-9.955)" fill="#b094ff"/>
              <path id="Path_2006" data-name="Path 2006" d="M263.186,389.751c.987-.173,1.669-.356,1.971-1.322A21.317,21.317,0,0,1,263.186,389.751Z" transform="translate(-250.954 -378.842)" fill="#945130"/>
              <path id="Path_2007" data-name="Path 2007" d="M259.336,405.418l-.2,1.245-4.747-27.054.41-.072Z" transform="translate(-250.186 -378.066)" fill="#c4c4c4"/>
            </g>
            <g id="Group_199" data-name="Group 199" transform="translate(0 4.902)">
              <path id="Path_2008" data-name="Path 2008" d="M250.532,383.3c.84,0,1.585,1.168,1.292,2.357a14.242,14.242,0,0,0,0,4.621c.208,1.293.291,1.847,0,2.138s-3.516,3.444-3.235,2.612a11.353,11.353,0,0,0-.017-3.958c-.183-1.214.62-2.429,1.084-5.175C250.113,383.184,250.052,383.3,250.532,383.3Z" transform="translate(-246.164 -383.296)" fill="#fdac78"/>
              <path id="Path_2009" data-name="Path 2009" d="M252.031,392.679c-1.552.948-2.922,1.146-3.281,2.553.077-.912.045-.719.045-.719s2.091-2.014,3.229-2.129Z" transform="translate(-246.181 -384.089)" fill="#fd8767"/>
              <path id="Path_2010" data-name="Path 2010" d="M257.509,414.658c0-.529.1-.447.1-1.345s1.5-4.63,1.418-5.3c-.122-1.049-.365-.648-.7-.6a32.5,32.5,0,0,1-4.449.444c-.56,0-.825-2.033-.627-2.231s1.161-1.479,1.32-1.638,2.984-1.083,3.564-1.293,2.535-1.188,2.535-2.482-2.482-.449-2.8-.449-3.723.845-4.41,1.056a23.383,23.383,0,0,1,3.44-1.161c.23,0,2.9-.357,3.3-.469a1.571,1.571,0,0,0,1.156-1.564c0-1.03-3.317-1.386-3.93-1.386s-5.02,1.01-5.218,1.01-.155-.765.119-.871c1.954-.759,2.339-1.586,3.433-1.92,1.228-.377,3.5-.99,3.5-2.139s-.792-1.268-1.465-1.268a22.19,22.19,0,0,0-3.9.424,46.672,46.672,0,0,0-4.751,2.646c-.812.534-1.078,3.49-1.525,3.937a7.574,7.574,0,0,0-1.683,3.172,3.282,3.282,0,0,0,.812,1.743,2.107,2.107,0,0,0-.435,1.366c0,.891,1.386,1.465,1.386,1.465a2.93,2.93,0,0,0,.357,1.366c.376.673,2.376,3.683,2.376,4.276a7.491,7.491,0,0,1-.707,3.207Z" transform="translate(-245.936 -383.973)" fill="#fdac78"/>
              <path id="Path_2011" data-name="Path 2011" d="M250.093,404.742c-.158.159,2.212-1.525,2.4-1.716a6.2,6.2,0,0,1,1.334-1.268c-.515.1-1.31,1-1.522,1.093S250.291,404.544,250.093,404.742Z" transform="translate(-246.298 -384.906)" fill="#fd8767"/>
              <path id="Path_2012" data-name="Path 2012" d="M249.487,400.479c.329-.33,1.479-2.019,2.033-2.284s1-.429,1-.429-.326-.44,0-.766-1.326.647-1.69,1.01A17.885,17.885,0,0,0,249.487,400.479Z" transform="translate(-246.246 -384.486)" fill="#fd8767"/>
              <path id="Path_2013" data-name="Path 2013" d="M257.575,410.057c.578-.082,1.595-.11,1.595-1.1a28.218,28.218,0,0,1-4.784.468A3.493,3.493,0,0,0,257.575,410.057Z" transform="translate(-246.673 -385.534)" fill="#fd8767"/>
            </g>
            <path id="Path_2014" data-name="Path 2014" d="M254.493,409.416l4.58-.8-.1,5.462c-.007.409-.462.794-1.062.9a1.162,1.162,0,0,1-1.3-.47Z" transform="translate(-246.682 -380.602)" fill="#c4c4c4"/>
          </g>
        </g>
      </g>
    </g>
  </g>
</svg>
